﻿MO,Parameter,condition_param,condition_value,all
CapacityState,currentCapacityLimit_value,capacitystateid,CXC4021002,info
CapacityState,currentCapacityLimit_value,capacitystateid,CXC4021007,info
FeatureState,featureState,featurestateid,CXC4020002,1
FeatureState,featureState,featurestateid,CXC4020014,1
FeatureState,featureState,featurestateid,CXC4020011,1
FeatureState,featureState,featurestateid,CXC4020037,1
FeatureState,featureState,featurestateid,CXC4020029,1
FeatureState,featureState,featurestateid,CXC4020103,1
FeatureState,featureState,featurestateid,CXC4021014,1
FeatureState,featureState,featurestateid,CXC4020075,1
FeatureState,featureState,featurestateid,CXC4020069,1
FeatureState,featureState,featurestateid,CXC4020065,1
FeatureState,featureState,featurestateid,CXC4020070,1
FeatureState,featureState,featurestateid,CXC4020061,1
NodeBFunction,licenseStateNumHsdpaUsers,,,info
NodeBFunction,licenseStateNumEulUsers,,,info
NodeBFunction,featureState16Qam,,,1
NodeBFunction,featureState64Qam,,,1
NodeBFunction,featureStateEul2msTti,,,1
NodeBFunction,featureStateAdditionalCeExtForEul,,,1
NodeBFunction,featureStateCeCapEul,,,1
NodeBFunction,featureStateCeEfficiencyEul,,,1
NodeBFunction,featureStateCeExtForEul,,,1
NodeBFunction,featureStateInterferenceSuppression,,,1
NodeBFunction,featureStateIntSuppEul10ms,,,1
NodeBFunction,featureStateIntSuppAllBearers,,,1
NodeBLocalCell,maxNumHsdpaUsers,,,info
NodeBLocalCell,maxNumEulUsers,,,info
NodeBLocalCell,featCtrlEulMc,,,1
NodeBLocalCell,featCtrlHsdpaMc,,,1
UtranCell,hsdpaUsersAdm,,,info
UtranCell,eulServingCellUsersAdm,,,info
RbsLocalCell,featureStateEulMc,,,1
RbsLocalCell,featureStateHsdpaMc,,,1
EUtranFreqRelation,qRxLevMin,eutranfreqrelationid,1850,info
EUtranFreqRelation,qRxLevMin,eutranfreqrelationid,275,info
EUtranFreqRelation,qRxLevMin,eutranfreqrelationid,3500,info
EUtranFreqRelation,qRxLevMin,eutranfreqrelationid,38750,info
EUtranFreqRelation,qRxLevMin,eutranfreqrelationid,38894,info
EUtranFreqRelation,threshXHigh,eutranfreqrelationid,1850,info
EUtranFreqRelation,threshXHigh,eutranfreqrelationid,275,info
EUtranFreqRelation,threshXHigh,eutranfreqrelationid,3500,info
EUtranFreqRelation,threshXHigh,eutranfreqrelationid,38750,info
EUtranFreqRelation,threshXHigh,eutranfreqrelationid,38894,info
